…
``` r
#Assign the correct order to each month of the year
all_trips_v3$month <-
    ordered(all_trips_v3$month, levels = c('05', '06', '07', '08', '09', '10', '11', '12', '01', '02', '03', '04'))
    
all_trips_v3 %>%
    group_by(member_casual, month) %>%
    summarise(number_of_ride = n(), .groups = 'drop') %>%
    arrange(month)    
```

    ## # A tibble: 22 × 3
    ##    member_casual month number_of_ride
    ##    <chr>         <ord>          <int>
    ##  1 casual        05             38338
    ##  2 member        05             81473
    ##  3 casual        06             75219
    ##  4 member        06            141811
    ##  5 casual        07            127215
    ##  6 member        07            218495
    ##  7 casual        08            151319
    ##  8 member        08            259497
    ##  9 casual        09            127284
    ## 10 member        09            236318
    ## # ℹ 12 more rows
…
``` r
all_trips_v3 %>%
    group_by(member_casual, month) %>%
    summarise(average_ride_length = mean(ride_length), .groups = 'drop') %>%
    arrange(month)
```

    ## # A tibble: 22 × 3
    ##    member_casual month average_ride_length
    ##    <chr>         <ord>               <dbl>
    ##  1 casual        05                   835.
    ##  2 member        05                   703.
    ##  3 casual        06                   829.
    ##  4 member        06                   703.
    ##  5 casual        07                   816.
    ##  6 member        07                   684.
    ##  7 casual        08                   782.
    ##  8 member        08                   651.
    ##  9 casual        09                   753.
    ## 10 member        09                   621.
    ## # ℹ 12 more rows
…
``` r
all_trips_v3 %>%
    group_by(member_casual, month) %>%
    summarise(distance_of_ride = mean(ride_distance), .groups = 'drop') %>%
    arrange(month)
```

    ## # A tibble: 22 × 3
    ##    member_casual month distance_of_ride
    ##    <chr>         <ord>            <dbl>
    ##  1 casual        05               1930.
    ##  2 member        05               1869.
    ##  3 casual        06               1996.
    ##  4 member        06               1917.
    ##  5 casual        07               1911.
    ##  6 member        07               1913.
    ##  7 casual        08               1912.
    ##  8 member        08               1881.
    ##  9 casual        09               1943.
    ## 10 member        09               1879.
    ## # ℹ 12 more rows
…
